<?xml version="1.0" encoding="UTF-8" standalone="no"?>
<!-- Created with Inkscape (http://www.inkscape.org/) -->

<svg
   xmlns:dc="http://purl.org/dc/elements/1.1/"
   xmlns:cc="http://creativecommons.org/ns#"
   xmlns:rdf="http://www.w3.org/1999/02/22-rdf-syntax-ns#"
   xmlns:svg="http://www.w3.org/2000/svg"
   xmlns="http://www.w3.org/2000/svg"
   xmlns:xlink="http://www.w3.org/1999/xlink"
   xmlns:sodipodi="http://sodipodi.sourceforge.net/DTD/sodipodi-0.dtd"
   xmlns:inkscape="http://www.inkscape.org/namespaces/inkscape"
   width="800"
   height="480"
   viewBox="0 0 211.66666 127.00001"
   version="1.1"
   id="svg820"
   inkscape:export-filename="/home/laurent/Projets/AveamSport/src/aveamsport/photomaton/overlay.png"
   inkscape:export-xdpi="96"
   inkscape:export-ydpi="96"
   sodipodi:docname="overlay.svg"
   inkscape:version="0.92.4 (unknown)">
  <defs
     id="defs814">
    <pattern
       inkscape:collect="always"
       xlink:href="#Strips1_2"
       id="pattern2924"
       patternTransform="matrix(0.99044234,1.7166848,-50.795162,29.3063,0,0)" />
    <pattern
       inkscape:isstock="true"
       inkscape:stockid="Stripes 1:2"
       id="Strips1_2"
       patternTransform="translate(0,0) scale(10,10)"
       height="1"
       width="3"
       patternUnits="userSpaceOnUse"
       inkscape:collect="always">
      <rect
         id="rect2163"
         height="2"
         width="1"
         y="-0.5"
         x="0"
         style="fill:black;stroke:none" />
    </pattern>
  </defs>
  <sodipodi:namedview
     id="base"
     pagecolor="#ffffff"
     bordercolor="#666666"
     borderopacity="1.0"
     inkscape:pageopacity="0.0"
     inkscape:pageshadow="2"
     inkscape:zoom="1.5467961"
     inkscape:cx="346.06511"
     inkscape:cy="241.27033"
     inkscape:document-units="mm"
     inkscape:current-layer="layer1"
     showgrid="false"
     units="px"
     inkscape:pagecheckerboard="true"
     inkscape:window-width="1920"
     inkscape:window-height="1015"
     inkscape:window-x="0"
     inkscape:window-y="28"
     inkscape:window-maximized="1" />
  <metadata
     id="metadata817">
    <rdf:RDF>
      <cc:Work
         rdf:about="">
        <dc:format>image/svg+xml</dc:format>
        <dc:type
           rdf:resource="http://purl.org/dc/dcmitype/StillImage" />
        <dc:title />
      </cc:Work>
    </rdf:RDF>
  </metadata>
  <g
     inkscape:label="Calque 1"
     inkscape:groupmode="layer"
     id="layer1"
     transform="translate(0,-169.99998)">
    <path
       style="fill:none;fill-rule:evenodd;stroke:none;stroke-width:0.26458332px;stroke-linecap:butt;stroke-linejoin:miter;stroke-opacity:1"
       d="m 75.21726,149.96724 c 0,0 39.54663,-20.81211 85.42262,-20.78869 45.87598,0.0234 85.04464,20.78869 85.04464,20.78869"
       id="path2889"
       inkscape:connector-curvature="0"
       sodipodi:nodetypes="czc" />
    <g
       aria-label="Tous sportifs !"
       transform="matrix(0.66666536,0,0,0.66666536,0.98208318,105.56132)"
       style="font-style:normal;font-variant:normal;font-weight:bold;font-stretch:normal;font-size:28.22222137px;line-height:125%;font-family:MetaPlus;-inkscape-font-specification:'MetaPlus Bold';letter-spacing:0px;word-spacing:0px;fill:#005e9d;fill-opacity:1;stroke:none;stroke-width:0.39687577px;stroke-linecap:butt;stroke-linejoin:miter;stroke-opacity:1"
       id="text3369">
      <path
         d="m 80.463552,125.97041 0.741896,3.254 -4.277911,1.90989 6.661586,14.92114 -3.659418,1.63376 -6.661586,-14.92115 -4.380993,1.95591 -1.334619,-2.98938 z"
         style="font-style:normal;font-variant:normal;font-weight:bold;font-stretch:normal;font-family:MetaPlus;-inkscape-font-specification:'MetaPlus Bold';fill:#005e9d;fill-opacity:1;stroke-width:0.39687577px"
         id="path3371"
         inkscape:connector-curvature="0" />
      <path
         d="m 91.462255,130.14099 q -0.63715,0.22982 -1.007495,0.78344 -0.343797,0.54404 -0.326353,1.2578 0.0057,0.59799 0.167626,1.37964 0.188488,0.77207 0.55238,1.78089 0.852275,2.36276 1.686634,3.26189 0.44003,0.47132 1.049777,0.5814 0.62672,0.0739 1.157678,-0.11757 1.168108,-0.42135 1.279898,-1.69176 0.138337,-1.27999 -0.733089,-3.69585 -0.976764,-2.70788 -2.028722,-3.3785 -0.816061,-0.5157 -1.798334,-0.16138 z m -1.001132,-2.60909 q 2.893723,-1.0438 5.356699,0.37794 1.167725,0.65887 1.960745,1.69291 0.79302,1.03404 1.396315,2.70656 0.632024,1.75216 0.657335,3.15313 0.05186,1.3914 -0.46033,2.71623 -0.453878,1.15379 -1.333848,2.04124 -0.87997,0.88746 -2.472845,1.46202 -1.380492,0.49796 -2.703998,0.40532 -1.296959,-0.10221 -2.418984,-0.71755 -1.131602,-0.6419 -2.052146,-1.77995 -0.893996,-1.14763 -1.468564,-2.74051 -0.574567,-1.59287 -0.61903,-3.04694 -0.02749,-1.49019 0.433782,-2.70665 0.451698,-1.24301 1.384764,-2.14961 0.959614,-0.91619 2.340105,-1.41414 z"
         style="font-style:normal;font-variant:normal;font-weight:bold;font-stretch:normal;font-family:MetaPlus;-inkscape-font-specification:'MetaPlus Bold';fill:#005e9d;fill-opacity:1;stroke-width:0.39687577px"
         id="path3373"
         inkscape:connector-curvature="0" />
      <path
         d="m 103.61345,123.11556 2.55582,8.92642 q 0.27189,0.94962 0.50089,1.44183 0.229,0.4922 0.45011,0.75181 0.22111,0.25961 0.62821,0.34854 0.42646,0.054 0.83344,-0.0625 0.6783,-0.19421 1.24007,-0.7954 0.56177,-0.6012 0.63123,-1.17885 l -2.79664,-9.76752 3.26314,-1.72692 3.03747,10.60861 q 0.20198,0.70543 0.61324,1.32158 0.4035,0.58902 0.95031,0.96087 l -2.15804,2.20313 q -0.88016,-0.30576 -1.4737,-1.04586 -0.49186,0.84538 -1.34826,1.44286 -0.82149,0.61684 -1.93391,0.93535 -1.46512,0.41949 -2.78334,0.12173 -1.31822,-0.29776 -1.95837,-1.20065 -0.29485,-0.41464 -0.55492,-1.01537 -0.23294,-0.6085 -0.53591,-1.66664 l -2.54805,-8.8993 z"
         style="font-style:normal;font-variant:normal;font-weight:bold;font-stretch:normal;font-family:MetaPlus;-inkscape-font-specification:'MetaPlus Bold';fill:#005e9d;fill-opacity:1;stroke-width:0.39687577px"
         id="path3375"
         inkscape:connector-curvature="0" />
      <path
         d="m 124.97557,121.80171 q -1.1672,-0.32615 -2.04242,-0.36873 -0.85356,-0.0761 -1.65368,0.0961 -0.80012,0.17222 -1.21362,0.66537 -0.41942,0.46557 -0.28284,1.10015 0.11876,0.5518 0.57629,0.79975 0.47918,0.21442 1.49829,0.25489 l 1.80561,0.0733 q 0.6978,0.023 1.18082,0.12114 0.47707,0.0705 0.82808,0.22593 0.37265,0.12188 0.64088,0.29509 0.26229,0.14563 0.50887,0.35238 0.98037,0.79939 1.28916,2.23409 0.23754,1.10361 -0.008,2.10911 -0.25142,0.9779 -0.90902,1.81229 -0.63595,0.80085 -1.68996,1.403 -1.02642,0.5962 -2.37835,0.88718 -2.5935,0.55821 -6.06157,-0.3986 l 0.74238,-2.98889 q 0.4673,0.15923 1.08443,0.34396 0.63878,0.1512 1.29922,0.26887 0.68208,0.0841 1.35229,0.1131 0.69186,-0.005 1.29885,-0.13521 0.80012,-0.17221 1.22933,-0.72649 0.45085,-0.5878 0.30239,-1.27756 -0.15439,-0.71735 -0.76175,-0.99079 -0.61329,-0.30102 -1.792,-0.27828 l -1.72075,0.0528 q -0.74704,0.0164 -1.58106,-0.23708 -0.83401,-0.25352 -1.32123,-0.63942 -0.48722,-0.3859 -0.8564,-1.02815 -0.34159,-0.64819 -0.49005,-1.33795 -0.21972,-1.02085 -0.0175,-1.95928 0.20218,-0.93844 0.78889,-1.69983 0.5867,-0.76138 1.5087,-1.30625 0.94958,-0.5508 2.19115,-0.81803 1.7106,-0.36817 2.992,-0.18208 1.27547,0.15851 2.34208,0.41971 z"
         style="font-style:normal;font-variant:normal;font-weight:bold;font-stretch:normal;font-family:MetaPlus;-inkscape-font-specification:'MetaPlus Bold';fill:#005e9d;fill-opacity:1;stroke-width:0.39687577px"
         id="path3377"
         inkscape:connector-curvature="0" />
      <path
         d="m 145.57714,118.85499 q -1.12713,-0.44532 -1.99323,-0.57834 -0.84109,-0.16412 -1.65475,-0.0757 -0.81366,0.0884 -1.27601,0.53605 -0.46541,0.41961 -0.39531,1.06492 0.061,0.56114 0.49034,0.85516 0.45438,0.26291 1.46381,0.40874 l 1.78831,0.25995 q 0.69166,0.0952 1.16191,0.24282 0.4672,0.11958 0.80022,0.31051 0.35802,0.15983 0.60686,0.3599 0.24579,0.17202 0.46962,0.4032 0.89228,0.89665 1.05077,2.35563 0.12192,1.12228 -0.22641,2.09694 -0.35139,0.94659 -1.09189,1.70835 -0.7155,0.73066 -1.82622,1.22037 -1.08266,0.48666 -2.45747,0.636 -2.63737,0.28651 -5.98765,-1.02445 l 1.04804,-2.8959 q 0.44829,0.2068 1.04296,0.45447 0.61968,0.21656 1.26437,0.40202 0.6697,0.15436 1.3333,0.2526 0.68861,0.0671 1.30587,8e-5 0.81366,-0.0884 1.29798,-0.59522 0.50932,-0.53793 0.43313,-1.23935 -0.0792,-0.72949 -0.65501,-1.06438 -0.5788,-0.36295 -1.75353,-0.46244 l -1.71695,-0.12575 q -0.74473,-0.061 -1.54799,-0.39961 -0.80326,-0.33856 -1.24788,-0.77286 -0.44461,-0.4343 -0.74527,-1.11135 -0.2726,-0.68009 -0.34879,-1.38152 -0.11278,-1.03811 0.18554,-1.95056 0.29831,-0.91244 0.96074,-1.60894 0.66244,-0.69651 1.63592,-1.14292 1.00154,-0.44946 2.26411,-0.58661 1.73954,-0.18897 2.99477,0.12888 1.25217,0.2898 2.28599,0.66009 z"
         style="font-style:normal;font-variant:normal;font-weight:bold;font-stretch:normal;font-family:MetaPlus;-inkscape-font-specification:'MetaPlus Bold';fill:#005e9d;fill-opacity:1;stroke-width:0.39687577px"
         id="path3379"
         inkscape:connector-curvature="0" />
      <path
         d="m 155.10016,125.73198 q 0.40169,0.30189 0.97207,0.57192 0.56977,0.24182 1.13408,0.22969 1.41079,-0.0303 1.98089,-1.08701 0.5701,-1.05672 0.51676,-3.5397 -0.0224,-1.04398 -0.12405,-1.8322 -0.10223,-0.81644 -0.31125,-1.34829 -0.4493,-1.20419 -1.83187,-1.17448 -1.46722,0.0315 -2.48756,1.15436 z m -0.77674,-11.19012 q 0.12135,0.39259 0.18445,0.70176 0.0631,0.30916 0.0986,0.64714 0.46694,-0.60284 1.44661,-0.99086 0.97907,-0.41623 2.07948,-0.43987 0.76182,-0.0164 1.50089,0.22181 0.76667,0.20936 1.36769,0.59165 0.60101,0.38229 1.0928,0.9363 0.49119,0.52579 0.87436,1.27974 0.38317,0.75394 0.60189,1.73725 0.21873,0.98331 0.2454,2.2248 0.0248,1.15684 -0.0686,2.06217 -0.0652,0.90472 -0.30283,1.672 -0.20996,0.73846 -0.59164,1.36769 -0.35347,0.62863 -0.90506,1.23328 -0.71663,0.8058 -1.69509,1.25025 -0.95024,0.44385 -2.1353,0.4693 -0.84647,0.0182 -1.64076,-0.16235 -0.76606,-0.18114 -1.39469,-0.53461 0.0619,0.25273 0.0685,0.5631 0.007,0.31038 0.0133,0.62075 l 0.097,4.51451 -3.61922,1.03753 -0.35885,-16.7037 q -0.0152,-0.70539 -0.0537,-1.18445 -0.0109,-0.50789 -0.047,-0.87408 -0.008,-0.39502 -0.0728,-0.76062 -0.0361,-0.36619 -0.13044,-0.81583 z"
         style="font-style:normal;font-variant:normal;font-weight:bold;font-stretch:normal;font-family:MetaPlus;-inkscape-font-specification:'MetaPlus Bold';fill:#005e9d;fill-opacity:1;stroke-width:0.39687577px"
         id="path3381"
         inkscape:connector-curvature="0" />
      <path
         d="m 173.1955,117.71355 q -0.67551,-0.0496 -1.23922,0.3052 -0.53557,0.35686 -0.81033,1.01584 -0.23836,0.54847 -0.4088,1.3283 -0.1423,0.7819 -0.22082,1.85147 -0.18391,2.50504 0.21193,3.66602 0.20992,0.60968 0.72198,0.95855 0.54226,0.32279 1.10519,0.36412 1.23845,0.0909 1.85795,-1.02383 0.64765,-1.11267 0.83569,-3.674 0.21077,-2.87094 -0.47686,-3.91186 -0.53529,-0.80335 -1.57671,-0.87981 z m 0.14828,-2.79063 q 3.06797,0.22523 4.73838,2.52683 0.79815,1.07733 1.10128,2.3447 0.30313,1.26737 0.17295,3.0406 -0.13638,1.85767 -0.68384,3.14749 -0.51932,1.29189 -1.52668,2.29327 -0.88443,0.86891 -2.04955,1.32103 -1.16512,0.45213 -2.85391,0.32815 -1.46362,-0.10745 -2.63466,-0.73109 -1.14289,-0.62157 -1.91702,-1.64054 -0.77208,-1.04712 -1.14931,-2.46142 -0.3491,-1.41224 -0.22511,-3.10103 0.12398,-1.68879 0.67557,-3.0349 0.58181,-1.3722 1.49853,-2.29533 0.91878,-0.95129 2.1402,-1.39928 1.24956,-0.44593 2.71317,-0.33848 z"
         style="font-style:normal;font-variant:normal;font-weight:bold;font-stretch:normal;font-family:MetaPlus;-inkscape-font-specification:'MetaPlus Bold';fill:#005e9d;fill-opacity:1;stroke-width:0.39687577px"
         id="path3383"
         inkscape:connector-curvature="0" />
      <path
         d="m 186.60005,116.31624 q 0.37304,0.96671 0.29066,2.12398 0.47207,-0.50185 1.13155,-0.91947 0.69146,-0.4415 1.25454,-0.58794 0.23965,-0.0793 0.58292,-0.0865 0.37119,-0.003 0.67841,0.0414 0.41895,0.0608 0.66221,0.15312 0.27119,0.0964 0.6897,0.35675 l -1.51165,3.14574 q -0.49013,-0.3563 -1.04872,-0.43736 -1.25684,-0.18238 -2.46451,0.86864 l -1.46716,10.11055 -3.74258,-0.54309 1.3861,-9.55196 q 0.21075,-1.45234 0.19718,-2.53799 0.0144,-1.08159 -0.11991,-1.72847 z"
         style="font-style:normal;font-variant:normal;font-weight:bold;font-stretch:normal;font-family:MetaPlus;-inkscape-font-specification:'MetaPlus Bold';fill:#005e9d;fill-opacity:1;stroke-width:0.39687577px"
         id="path3385"
         inkscape:connector-curvature="0" />
      <path
         d="m 199.62432,121.60402 -2.38122,-0.46975 -1.40378,7.11597 q -0.26764,1.35674 -0.0559,1.88753 0.24487,0.50857 1.21397,0.69974 0.2492,0.0492 0.53701,0.0484 0.32096,-0.023 0.84667,-0.0631 l 0.0337,2.30795 q -1.67619,0.33095 -3.14369,0.0415 -1.41211,-0.27857 -2.35504,-1.03991 -0.90977,-0.78356 -1.05632,-1.79051 -0.0394,-0.2379 -0.0565,-0.44264 -0.0171,-0.20475 -0.001,-0.43172 0.0437,-0.22151 0.0761,-0.53155 0.0655,-0.33226 0.16386,-0.83065 l 1.51848,-7.69743 -1.41212,-0.27857 0.50252,-2.54736 1.41212,0.27857 q 0.20756,-1.05216 0.35504,-1.79975 0.17517,-0.74214 0.44432,-1.52326 l 3.95137,-0.19856 q -0.30193,0.94726 -0.58126,2.07157 -0.27386,1.09662 -0.48689,2.17647 l 3.32264,0.65546 z"
         style="font-style:normal;font-variant:normal;font-weight:bold;font-stretch:normal;font-family:MetaPlus;-inkscape-font-specification:'MetaPlus Bold';fill:#005e9d;fill-opacity:1;stroke-width:0.39687577px"
         id="path3387"
         inkscape:connector-curvature="0" />
      <path
         d="m 207.48317,114.27299 q 0.93272,0.22533 1.40463,1.03615 0.49933,0.81745 0.26737,1.77761 -0.23196,0.96015 -1.04941,1.45949 -0.81745,0.49933 -1.7776,0.26738 -0.93273,-0.22533 -1.43206,-1.04278 -0.49934,-0.81746 -0.26738,-1.77761 0.23196,-0.96016 1.04941,-1.45949 0.84488,-0.49271 1.80504,-0.26075 z m 0.37814,6.24658 -3.47275,14.37491 -3.67603,-0.88807 3.33358,-13.79881 z"
         style="font-style:normal;font-variant:normal;font-weight:bold;font-stretch:normal;font-family:MetaPlus;-inkscape-font-specification:'MetaPlus Bold';fill:#005e9d;fill-opacity:1;stroke-width:0.39687577px"
         id="path3389"
         inkscape:connector-curvature="0" />
      <path
         d="m 219.74595,120.79205 q -0.51287,-0.4678 -0.78852,-0.63381 -0.2485,-0.15833 -0.57436,-0.25056 -0.70605,-0.19984 -1.22867,0.0922 -0.52262,0.29204 -0.73783,1.05239 l -0.56107,1.98235 3.53021,0.99918 -1.6304,2.23698 -2.57977,-0.73017 -3.22812,11.40529 -3.55736,-1.00686 3.22811,-11.4053 -1.24915,-0.35355 0.70711,-2.4983 1.33062,0.37661 q 0.0687,-0.44986 0.1527,-0.95403 0.11888,-0.52364 0.24954,-0.98528 0.58414,-2.06382 2.06695,-2.8467 1.49049,-0.81003 3.63578,-0.20283 0.89613,0.25363 1.59499,0.68608 0.73371,0.41299 1.44487,1.11289 z"
         style="font-style:normal;font-variant:normal;font-weight:bold;font-stretch:normal;font-family:MetaPlus;-inkscape-font-specification:'MetaPlus Bold';fill:#005e9d;fill-opacity:1;stroke-width:0.39687577px"
         id="path3391"
         inkscape:connector-curvature="0" />
      <path
         d="m 228.28636,130.69996 q -0.83502,-0.87833 -1.5647,-1.36351 -0.69389,-0.50287 -1.46918,-0.76513 -0.77528,-0.26227 -1.38311,-0.0508 -0.59877,0.18475 -0.80678,0.79964 -0.18087,0.53468 0.0849,0.98209 0.30153,0.42973 1.15582,0.98686 l 1.51282,0.98845 q 0.58735,0.37745 0.95179,0.70928 0.37348,0.3051 0.59521,0.61846 0.2575,0.29566 0.39903,0.58188 0.15056,0.25948 0.25631,0.56339 0.43203,1.18892 -0.0382,2.57908 -0.36174,1.06936 -1.08792,1.80689 -0.71714,0.71079 -1.70947,1.09015 -0.95656,0.36166 -2.17022,0.33841 -1.18692,-0.0142 -2.49689,-0.45733 -2.513,-0.8501 -5.00037,-3.44933 l 2.1695,-2.18584 q 0.31962,0.37626 0.75482,0.85121 0.47098,0.45725 0.97773,0.89682 0.54254,0.42187 1.10316,0.79028 0.5964,0.35071 1.18455,0.54967 0.77528,0.26226 1.42793,0.006 0.68842,-0.27361 0.91451,-0.94196 0.23513,-0.69508 -0.14621,-1.24119 -0.37229,-0.57284 -1.39604,-1.1575 l -1.50456,-0.83668 q -0.64987,-0.36881 -1.23603,-1.01399 -0.58617,-0.64519 -0.8067,-1.22628 -0.22054,-0.58109 -0.20832,-1.32178 0.0389,-0.73166 0.26504,-1.40001 0.33461,-0.98916 0.98924,-1.6913 0.65462,-0.70215 1.54867,-1.05516 0.89404,-0.35302 1.96499,-0.34826 1.09768,0.0138 2.30071,0.42076 1.65751,0.56071 2.66238,1.37732 1.0139,0.78989 1.79585,1.56089 z"
         style="font-style:normal;font-variant:normal;font-weight:bold;font-stretch:normal;font-family:MetaPlus;-inkscape-font-specification:'MetaPlus Bold';fill:#005e9d;fill-opacity:1;stroke-width:0.39687577px"
         id="path3393"
         inkscape:connector-curvature="0" />
      <path
         d="m 236.83593,146.24343 q -0.88085,-0.3806 -1.23396,-1.27103 -0.32721,-0.87924 0.0646,-1.78599 0.39179,-0.90676 1.28222,-1.25987 0.89044,-0.35312 1.79719,0.0387 0.88085,0.3806 1.23396,1.27103 0.35312,0.89043 -0.0387,1.79719 -0.39179,0.90675 -1.30813,1.24867 -0.89044,0.35312 -1.79719,-0.0387 z m 1.32406,-6.622 4.43924,-12.4086 4.40263,1.19519 -6.19933,12.35521 z"
         style="font-style:normal;font-variant:normal;font-weight:bold;font-stretch:normal;font-family:MetaPlus;-inkscape-font-specification:'MetaPlus Bold';fill:#005e9d;fill-opacity:1;stroke-width:0.39687577px"
         id="path3395"
         inkscape:connector-curvature="0" />
    </g>
  </g>
</svg>
